datasets::mtcars, factored and labeled — dat_mtcars_e • erikmisc
…
# Generate missing values
dat_mtcars_miss_e <- dat_mtcars_e
prop_missing <- 0.10
n_missing <-
  sample.int(
    n    = prod(dim(dat_mtcars_miss_e))
  , size = round( prop_missing * prod(dim(dat_mtcars_miss_e)))
  )
ind_missing <- expand.grid(1:dim(dat_mtcars_miss_e)[1], 1:dim(dat_mtcars_miss_e)[2])[n_missing, ]
for (i_row in seq_along(n_missing)) {
  dat_mtcars_miss_e[ind_missing[i_row, 1], ind_missing[i_row, 2] ] <- NA
}
dat_mtcars_miss_e |> print()
#> # A tibble: 32 × 12
#>    model         mpg cyl    disp    hp  drat    wt  qsec vs    am     gear  carb
#>    <chr>       <dbl> <fct> <dbl> <dbl> <dbl> <dbl> <dbl> <fct> <fct> <dbl> <dbl>
#>  1 Mazda RX4    21   six    160    110  3.9   2.62  16.5 V-sh… manu…     4     4
#>  2 Mazda RX4 …  NA   six    160    110 NA     2.88  17.0 V-sh… manu…     4     4
#>  3 Datsun 710   22.8 four   108     93 NA     2.32  18.6 stra… manu…     4     1
#>  4 Hornet 4 D…  21.4 six    258    110  3.08  3.22  19.4 NA    auto…     3     1
#>  5 NA           18.7 eight  360    175  3.15 NA     17.0 NA    auto…     3    NA
#>  6 Valiant      18.1 NA     225    105  2.76  3.46  20.2 stra… auto…     3    NA
#>  7 Duster 360   14.3 eight  360    245  3.21  3.57  15.8 V-sh… auto…     3     4
#>  8 Merc 240D    24.4 four   147.    62  3.69  3.19  20   stra… auto…     4     2
#>  9 Merc 230     22.8 four   141.    95  3.92 NA     22.9 NA    auto…     4     2
#> 10 Merc 280     19.2 six    168.   123  3.92  3.44  18.3 NA    auto…     4     4
#> # ℹ 22 more rows
…
