Derivatives of time series using finite difference coefficients — e_derivative_finite_difference • erikmisc
…
    Value

    dx           derivative

    Examples

# ragged empirical time series
dat <-
  tibble::tibble(
    x  = datasets::lh |> as.numeric()
  , dx = e_derivative_finite_difference(x)
  , i  = 1:length(x)
  )
dat |> print(n = 10)
#> # A tibble: 48 × 3
#>        x      dx     i
#>    <dbl>   <dbl> <int>
#>  1   2.4  0          1
#>  2   2.4  0          2
#>  3   2.4 -0.108      3
#>  4   2.2 -0.0917     4
#>  5   2.1 -0.544      5
#>  6   1.5  0.145      6
#>  7   2.3  0.554      7
#>  8   2.3  0.0542     8
#>  9   2.5 -0.153      9
#> 10   2   -0.365     10
#> # ℹ 38 more rows
…
# smooth sin function
dat <-
  tibble::tibble(
    x   = seq(0, 4 * pi, by = pi / 180)
  , x_sin = sin(x)
  , x_cos = cos(x)
  , dx_sin = e_derivative_finite_difference(x_sin) / (pi / 180)
  , i  = 1:length(x)
  )
dat |> print(n = 10)
#> # A tibble: 721 × 5
#>         x  x_sin x_cos dx_sin     i
#>     <dbl>  <dbl> <dbl>  <dbl> <int>
#>  1 0      0      1      1.00      1
#>  2 0.0175 0.0175 1.00   1.00      2
#>  3 0.0349 0.0349 0.999  0.999     3
#>  4 0.0524 0.0523 0.999  0.999     4
#>  5 0.0698 0.0698 0.998  0.998     5
#>  6 0.0873 0.0872 0.996  0.996     6
#>  7 0.105  0.105  0.995  0.995     7
#>  8 0.122  0.122  0.993  0.993     8
#>  9 0.140  0.139  0.990  0.990     9
#> 10 0.157  0.156  0.988  0.988    10
#> # ℹ 711 more rows
…
