Compute Koch Chart density altitude, takeoff roll, and climb rate — e_pilot_density_altitude • erikmisc
…
dat_out <-
  list_out %>%
  dplyr::bind_rows()
dat_out %>% print(n = 10)
#> # A tibble: 42 × 8
#>    density_altitude dist_takeof…¹ climb…² pres_…³ temp_C dist_…⁴ climb…⁵ sw_pr…⁶
#>    <chr>            <chr>         <chr>   <chr>   <chr>  <chr>   <chr>   <chr>  
#>  1 -1838            586           1016    0       0      770     900     consta…
#>  2 0                770           900     0       15     770     900     consta…
#>  3 587              829           863     0       20     770     900     consta…
#>  4 1161             886           827     0       25     770     900     consta…
#>  5 1724             943           791     0       30     770     900     consta…
#>  6 2275             998           757     0       35     770     900     consta…
#>  7 2816             1052          723     0       40     770     900     consta…
#>  8 659              836           859     2000    0      770     900     consta…
#>  9 2466             1017          745     2000    15     770     900     consta…
#> 10 3043             1075          708     2000    20     770     900     consta…
#> # … with 32 more rows, and abbreviated variable names ¹​dist_takeoff_dens_alt,
#> #   ²​climb_rate_dens_alt, ³​pres_alt, ⁴​dist_takeoff_sea_level,
#> #   ⁵​climb_rate_sea_level, ⁶​sw_propeller
…
