Split a (set of) item-listing columns into indicator columns — e_split_list_columns_into_indicator_columns • erikmisc
…
  e_split_list_columns_into_indicator_columns(
    dat_this              = dat_ex
  , var_names_items       = c("col1", "col2")
  , item_delimiters       = ",.;/|"
  , code_other_below_freq = 2
  , label_other           = "other"
  , indicator_col_prefix  = "item_"
  , sw_data_or_summary    = "summary"
  , sw_replace_GT1_with_1 = FALSE
  , sw_print_unique       = FALSE
  )
#> Note: erikmisc::e_split_list_columns_into_indicator_columns: Other category `other` already appears in data.
dat_ex_sum
#> $tab_items_unique
#> # A tibble: 22 x 2
#>    items  freq
#>    <chr> <int>
#>  1 1         4
#>  2 a         3
#>  3 a a a     3
#>  4 b         3
#>  5 c         3
#>  6 d         3
#>  7 2         2
#>  8 j         2
#>  9 0         1
#> 10 ab        1
#> # ... with 12 more rows
…
